…
The folder now contains the files we wanted.

``` r
list.files(micro_dir)
#> [1] "age.px"          "gender.px"       "municipality.px"
```

Each file contains one of the three variables as STUB, ‘cohort’ as
HEADING, and a variable ‘n’ which is the count of each combination of
the variables.

``` r
px(file.path(micro_dir, 'age.px'))$data
#> # A tibble: 120 × 3
#>    age   cohort     n
#>    <chr> <chr>  <dbl>
#>  1 18    A         NA
#>  2 18    B          1
#>  3 19    A         NA
#>  4 19    B          1
#>  5 20    A         NA
#>  6 20    B          1
#>  7 21    A          3
#>  8 21    B         NA
#>  9 22    A          1
#> 10 22    B         NA
#> # ℹ 110 more rows
…
